{
    "type": "mysql",
    "host": "192.168.0.20",
    "port": 3306,
    "username": "adminer",
    "password": "Leonaa11!",
    "database": "inventario",
    "entities": ["src/entity/**/*.ts"],
    "synchronize": true
 }
